module product_management

go 1.18

require (
	github.com/dgrijalva/jwt-go v3.2.0+incompatible
	github.com/go-playground/validator v9.31.0+incompatible
	github.com/golang-jwt/jwt v3.2.2+incompatible
	github.com/labstack/echo/v4 v4.10.2
	gorm.io/driver/mysql v1.4.7
	gorm.io/gorm v1.24.6
)

require (
	github.com/go-playground/locales v0.14.1 // indirect
	github.com/go-playground/universal-translator v0.18.1 // indirect
	github.com/go-sql-driver/mysql v1.7.0 // indirect
	github.com/jinzhu/inflection v1.0.0 // indirect
	github.com/jinzhu/now v1.1.5 // indirect
	github.com/labstack/gommon v0.4.0 // indirect
	github.com/leodido/go-urn v1.2.2 // indirect
	github.com/mattn/go-colorable v0.1.13 // indirect
	github.com/mattn/go-isatty v0.0.17 // indirect
	github.com/valyala/bytebufferpool v1.0.0 // indirect
	github.com/valyala/fasttemplate v1.2.2 // indirect
	golang.org/x/crypto v0.6.0 // indirect
	golang.org/x/net v0.7.0 // indirect
	golang.org/x/sys v0.5.0 // indirect
	golang.org/x/text v0.7.0 // indirect
	golang.org/x/time v0.3.0 // indirect
	gopkg.in/go-playground/assert.v1 v1.2.1 // indirect
)
